^C:\USERS\SOHRAB\DOCUMENTS\VISUAL STUDIO 2010\PROJECTS\7\7\STDAFX.CPP
/c /ZI /nologo /W3 /WX- /Od /Oy- /D WIN32 /D _WINDOWS /D _DEBUG /D _UNICODE /D UNICODE /D _ATL_STATIC_REGISTRY /D _AFXDLL /Gm /EHsc /RTC1 /MDd /GS /fp:precise /Zc:wchar_t /Zc:forScope /Yc"StdAfx.h" /Fp"Debug\7.pch" /Fo"Debug\\" /Fd"Debug\vc100.pdb" /Gd /TP /analyze- /errorReport:prompt C:\USERS\SOHRAB\DOCUMENTS\VISUAL STUDIO 2010\PROJECTS\7\7\STDAFX.CPP
^C:\USERS\SOHRAB\DOCUMENTS\VISUAL STUDIO 2010\PROJECTS\7\7\7.CPP
/c /ZI /nologo /W3 /WX- /Od /Oy- /D WIN32 /D _WINDOWS /D _DEBUG /D _UNICODE /D UNICODE /D _ATL_STATIC_REGISTRY /D _AFXDLL /Gm /EHsc /RTC1 /MDd /GS /fp:precise /Zc:wchar_t /Zc:forScope /Yu"StdAfx.h" /Fp"Debug\7.pch" /Fo"Debug\\" /Fd"Debug\vc100.pdb" /Gd /TP /analyze- /errorReport:prompt C:\USERS\SOHRAB\DOCUMENTS\VISUAL STUDIO 2010\PROJECTS\7\7\7.CPP
^C:\USERS\SOHRAB\DOCUMENTS\VISUAL STUDIO 2010\PROJECTS\7\7\7DOC.CPP
/c /ZI /nologo /W3 /WX- /Od /Oy- /D WIN32 /D _WINDOWS /D _DEBUG /D _UNICODE /D UNICODE /D _ATL_STATIC_REGISTRY /D _AFXDLL /Gm /EHsc /RTC1 /MDd /GS /fp:precise /Zc:wchar_t /Zc:forScope /Yu"StdAfx.h" /Fp"Debug\7.pch" /Fo"Debug\\" /Fd"Debug\vc100.pdb" /Gd /TP /analyze- /errorReport:prompt C:\USERS\SOHRAB\DOCUMENTS\VISUAL STUDIO 2010\PROJECTS\7\7\7DOC.CPP
^C:\USERS\SOHRAB\DOCUMENTS\VISUAL STUDIO 2010\PROJECTS\7\7\7VIEW.CPP
/c /ZI /nologo /W3 /WX- /Od /Oy- /D WIN32 /D _WINDOWS /D _DEBUG /D _UNICODE /D UNICODE /D _ATL_STATIC_REGISTRY /D _AFXDLL /Gm /EHsc /RTC1 /MDd /GS /fp:precise /Zc:wchar_t /Zc:forScope /Yu"StdAfx.h" /Fp"Debug\7.pch" /Fo"Debug\\" /Fd"Debug\vc100.pdb" /Gd /TP /analyze- /errorReport:prompt C:\USERS\SOHRAB\DOCUMENTS\VISUAL STUDIO 2010\PROJECTS\7\7\7VIEW.CPP
^C:\USERS\SOHRAB\DOCUMENTS\VISUAL STUDIO 2010\PROJECTS\7\7\CLASSVIEW.CPP
/c /ZI /nologo /W3 /WX- /Od /Oy- /D WIN32 /D _WINDOWS /D _DEBUG /D _UNICODE /D UNICODE /D _ATL_STATIC_REGISTRY /D _AFXDLL /Gm /EHsc /RTC1 /MDd /GS /fp:precise /Zc:wchar_t /Zc:forScope /Yu"StdAfx.h" /Fp"Debug\7.pch" /Fo"Debug\\" /Fd"Debug\vc100.pdb" /Gd /TP /analyze- /errorReport:prompt C:\USERS\SOHRAB\DOCUMENTS\VISUAL STUDIO 2010\PROJECTS\7\7\CLASSVIEW.CPP
^C:\USERS\SOHRAB\DOCUMENTS\VISUAL STUDIO 2010\PROJECTS\7\7\FILEVIEW.CPP
/c /ZI /nologo /W3 /WX- /Od /Oy- /D WIN32 /D _WINDOWS /D _DEBUG /D _UNICODE /D UNICODE /D _ATL_STATIC_REGISTRY /D _AFXDLL /Gm /EHsc /RTC1 /MDd /GS /fp:precise /Zc:wchar_t /Zc:forScope /Yu"StdAfx.h" /Fp"Debug\7.pch" /Fo"Debug\\" /Fd"Debug\vc100.pdb" /Gd /TP /analyze- /errorReport:prompt C:\USERS\SOHRAB\DOCUMENTS\VISUAL STUDIO 2010\PROJECTS\7\7\FILEVIEW.CPP
^C:\USERS\SOHRAB\DOCUMENTS\VISUAL STUDIO 2010\PROJECTS\7\7\HEAP_QUEUE.CPP
/c /ZI /nologo /W3 /WX- /Od /Oy- /D WIN32 /D _WINDOWS /D _DEBUG /D _UNICODE /D UNICODE /D _ATL_STATIC_REGISTRY /D _AFXDLL /Gm /EHsc /RTC1 /MDd /GS /fp:precise /Zc:wchar_t /Zc:forScope /Yu"StdAfx.h" /Fp"Debug\7.pch" /Fo"Debug\\" /Fd"Debug\vc100.pdb" /Gd /TP /analyze- /errorReport:prompt C:\USERS\SOHRAB\DOCUMENTS\VISUAL STUDIO 2010\PROJECTS\7\7\HEAP_QUEUE.CPP
^C:\USERS\SOHRAB\DOCUMENTS\VISUAL STUDIO 2010\PROJECTS\7\7\MAINFRM.CPP
/c /ZI /nologo /W3 /WX- /Od /Oy- /D WIN32 /D _WINDOWS /D _DEBUG /D _UNICODE /D UNICODE /D _ATL_STATIC_REGISTRY /D _AFXDLL /Gm /EHsc /RTC1 /MDd /GS /fp:precise /Zc:wchar_t /Zc:forScope /Yu"StdAfx.h" /Fp"Debug\7.pch" /Fo"Debug\\" /Fd"Debug\vc100.pdb" /Gd /TP /analyze- /errorReport:prompt C:\USERS\SOHRAB\DOCUMENTS\VISUAL STUDIO 2010\PROJECTS\7\7\MAINFRM.CPP
^C:\USERS\SOHRAB\DOCUMENTS\VISUAL STUDIO 2010\PROJECTS\7\7\HEAP.CPP
/c /ZI /nologo /W3 /WX- /Od /Oy- /D WIN32 /D _WINDOWS /D _DEBUG /D _UNICODE /D UNICODE /D _ATL_STATIC_REGISTRY /D _AFXDLL /Gm /EHsc /RTC1 /MDd /GS /fp:precise /Zc:wchar_t /Zc:forScope /Yu"StdAfx.h" /Fp"Debug\7.pch" /Fo"Debug\\" /Fd"Debug\vc100.pdb" /Gd /TP /analyze- /errorReport:prompt C:\USERS\SOHRAB\DOCUMENTS\VISUAL STUDIO 2010\PROJECTS\7\7\HEAP.CPP
^C:\USERS\SOHRAB\DOCUMENTS\VISUAL STUDIO 2010\PROJECTS\7\7\OUTPUTWND.CPP
/c /ZI /nologo /W3 /WX- /Od /Oy- /D WIN32 /D _WINDOWS /D _DEBUG /D _UNICODE /D UNICODE /D _ATL_STATIC_REGISTRY /D _AFXDLL /Gm /EHsc /RTC1 /MDd /GS /fp:precise /Zc:wchar_t /Zc:forScope /Yu"StdAfx.h" /Fp"Debug\7.pch" /Fo"Debug\\" /Fd"Debug\vc100.pdb" /Gd /TP /analyze- /errorReport:prompt C:\USERS\SOHRAB\DOCUMENTS\VISUAL STUDIO 2010\PROJECTS\7\7\OUTPUTWND.CPP
^C:\USERS\SOHRAB\DOCUMENTS\VISUAL STUDIO 2010\PROJECTS\7\7\PROPERTIESWND.CPP
/c /ZI /nologo /W3 /WX- /Od /Oy- /D WIN32 /D _WINDOWS /D _DEBUG /D _UNICODE /D UNICODE /D _ATL_STATIC_REGISTRY /D _AFXDLL /Gm /EHsc /RTC1 /MDd /GS /fp:precise /Zc:wchar_t /Zc:forScope /Yu"StdAfx.h" /Fp"Debug\7.pch" /Fo"Debug\\" /Fd"Debug\vc100.pdb" /Gd /TP /analyze- /errorReport:prompt C:\USERS\SOHRAB\DOCUMENTS\VISUAL STUDIO 2010\PROJECTS\7\7\PROPERTIESWND.CPP
^C:\USERS\SOHRAB\DOCUMENTS\VISUAL STUDIO 2010\PROJECTS\7\7\QUEUE.CPP
/c /ZI /nologo /W3 /WX- /Od /Oy- /D WIN32 /D _WINDOWS /D _DEBUG /D _UNICODE /D UNICODE /D _ATL_STATIC_REGISTRY /D _AFXDLL /Gm /EHsc /RTC1 /MDd /GS /fp:precise /Zc:wchar_t /Zc:forScope /Yu"StdAfx.h" /Fp"Debug\7.pch" /Fo"Debug\\" /Fd"Debug\vc100.pdb" /Gd /TP /analyze- /errorReport:prompt C:\USERS\SOHRAB\DOCUMENTS\VISUAL STUDIO 2010\PROJECTS\7\7\QUEUE.CPP
^C:\USERS\SOHRAB\DOCUMENTS\VISUAL STUDIO 2010\PROJECTS\7\7\VIEWTREE.CPP
/c /ZI /nologo /W3 /WX- /Od /Oy- /D WIN32 /D _WINDOWS /D _DEBUG /D _UNICODE /D UNICODE /D _ATL_STATIC_REGISTRY /D _AFXDLL /Gm /EHsc /RTC1 /MDd /GS /fp:precise /Zc:wchar_t /Zc:forScope /Yu"StdAfx.h" /Fp"Debug\7.pch" /Fo"Debug\\" /Fd"Debug\vc100.pdb" /Gd /TP /analyze- /errorReport:prompt C:\USERS\SOHRAB\DOCUMENTS\VISUAL STUDIO 2010\PROJECTS\7\7\VIEWTREE.CPP
